%YAML 1.1
%TAG !u! tag:unity3d.com,2011:
--- !u!114 &11400000
MonoBehaviour:
  m_ObjectHideFlags: 0
  m_PrefabParentObject: {fileID: 0}
  m_PrefabInternal: {fileID: 0}
  m_GameObject: {fileID: 0}
  m_Enabled: 1
  m_EditorHideFlags: 0
  m_Script: {fileID: 11500000, guid: 56dbe4a9d916ad34cb47108e85dba4bd, type: 3}
  m_Name: TutLevel_1
  m_EditorClassIdentifier: 
  steps:
  - faceImg: {fileID: 2800000, guid: 9e44542c14ea5e84595713e97b938154, type: 3}
    faceText: HI FRIEND!
    okButtonText: HI!
    isYesNo: 0
    isGoalTxt: 0
    isMoveTxt: 0
    isHint: 0
    buttonOperator: 
    buttonOpeColor: {r: 0, g: 0, b: 0, a: 0}
    buttonOpeShadowColor: {r: 0, g: 0, b: 0, a: 0}
  - faceImg: {fileID: 2800000, guid: 208cdbd00af69b848b8b20dcce3c7c3f, type: 3}
    faceText: I AM JOYSY, WANNA GET JOY?
    okButtonText: SURE
    isYesNo: 0
    isGoalTxt: 0
    isMoveTxt: 0
    isHint: 0
    buttonOperator: 
    buttonOpeColor: {r: 0, g: 0, b: 0, a: 0}
    buttonOpeShadowColor: {r: 0, g: 0, b: 0, a: 0}
  - faceImg: {fileID: 2800000, guid: 9e44542c14ea5e84595713e97b938154, type: 3}
    faceText: FIRST, THIS NUMBER
    okButtonText: YEAH
    isYesNo: 0
    isGoalTxt: 1
    isMoveTxt: 0
    isHint: 0
    buttonOperator: 
    buttonOpeColor: {r: 0, g: 0, b: 0, a: 0}
    buttonOpeShadowColor: {r: 0, g: 0, b: 0, a: 0}
  - faceImg: {fileID: 2800000, guid: 220ed58fd7bc2914080a8e9423597ac4, type: 3}
    faceText: ITS THE GOAL YOU'LL ACHIEVE
    okButtonText: OK
    isYesNo: 0
    isGoalTxt: 1
    isMoveTxt: 0
    isHint: 0
    buttonOperator: 
    buttonOpeColor: {r: 0, g: 0, b: 0, a: 0}
    buttonOpeShadowColor: {r: 0, g: 0, b: 0, a: 0}
  - faceImg: {fileID: 2800000, guid: 9e44542c14ea5e84595713e97b938154, type: 3}
    faceText: THEN, THIS NUMBER
    okButtonText: OK
    isYesNo: 0
    isGoalTxt: 0
    isMoveTxt: 1
    isHint: 0
    buttonOperator: 
    buttonOpeColor: {r: 0, g: 0, b: 0, a: 0}
    buttonOpeShadowColor: {r: 0, g: 0, b: 0, a: 0}
  - faceImg: {fileID: 2800000, guid: 208cdbd00af69b848b8b20dcce3c7c3f, type: 3}
    faceText: IT'S THE NUMBER OF MOVES YOU CAN MAKE
    okButtonText: I SEE
    isYesNo: 0
    isGoalTxt: 0
    isMoveTxt: 1
    isHint: 0
    buttonOperator: 
    buttonOpeColor: {r: 0, g: 0, b: 0, a: 0}
    buttonOpeShadowColor: {r: 0, g: 0, b: 0, a: 0}
  - faceImg: {fileID: 2800000, guid: 208cdbd00af69b848b8b20dcce3c7c3f, type: 3}
    faceText: PRESS THE BUTTON BELOW, YOU WIN WHEN YOU MAKE THE NUMBER
    okButtonText: I SEE
    isYesNo: 0
    isGoalTxt: 0
    isMoveTxt: 1
    isHint: 0
    buttonOperator: 
    buttonOpeColor: {r: 0, g: 0, b: 0, a: 0}
    buttonOpeShadowColor: {r: 0, g: 0, b: 0, a: 0}
  - faceImg: {fileID: 2800000, guid: 220ed58fd7bc2914080a8e9423597ac4, type: 3}
    faceText: READY?
    okButtonText: YEAH
    isYesNo: 1
    isGoalTxt: 0
    isMoveTxt: 0
    isHint: 0
    buttonOperator: 
    buttonOpeColor: {r: 0, g: 0, b: 0, a: 0}
    buttonOpeShadowColor: {r: 0, g: 0, b: 0, a: 0}
  - faceImg: {fileID: 2800000, guid: 208cdbd00af69b848b8b20dcce3c7c3f, type: 3}
    faceText: NICE, HERE'S LEVEL ONE!
    okButtonText: OK!
    isYesNo: 0
    isGoalTxt: 0
    isMoveTxt: 0
    isHint: 0
    buttonOperator: 
    buttonOpeColor: {r: 0, g: 0, b: 0, a: 0}
    buttonOpeShadowColor: {r: 0, g: 0, b: 0, a: 0}
