%YAML 1.1
%TAG !u! tag:unity3d.com,2011:
--- !u!114 &11400000
MonoBehaviour:
  m_ObjectHideFlags: 0
  m_PrefabParentObject: {fileID: 0}
  m_PrefabInternal: {fileID: 0}
  m_GameObject: {fileID: 0}
  m_Enabled: 1
  m_EditorHideFlags: 0
  m_Script: {fileID: 11500000, guid: 56dbe4a9d916ad34cb47108e85dba4bd, type: 3}
  m_Name: TutLevel_8
  m_EditorClassIdentifier: 
  steps:
  - faceImg: {fileID: 0}
    faceText: YOUR GREAT WORK MAKES A NEW BUTTON UNLOCKED.
    okButtonText: BUTTON?
    isYesNo: 0
    isGoalTxt: 0
    isMoveTxt: 0
    isHint: 0
    buttonOperator: 
    buttonOpeColor: {r: 0, g: 0, b: 0, a: 0}
    buttonOpeShadowColor: {r: 0, g: 0, b: 0, a: 0}
  - faceImg: {fileID: 0}
    faceText: YES, IT DELETES THE LAST NUMBER OF THE TOTAL.
    okButtonText: WOW
    isYesNo: 0
    isGoalTxt: 0
    isMoveTxt: 0
    isHint: 0
    buttonOperator: <<
    buttonOpeColor: {r: 1, g: 0.40392157, b: 0, a: 1}
    buttonOpeShadowColor: {r: 0.7137255, g: 0.28627452, b: 0, a: 1}
  - faceImg: {fileID: 0}
    faceText: IS IT AWESOME?
    okButtonText: YEAH
    isYesNo: 0
    isGoalTxt: 0
    isMoveTxt: 0
    isHint: 0
    buttonOperator: <<
    buttonOpeColor: {r: 1, g: 0.4039216, b: 0, a: 1}
    buttonOpeShadowColor: {r: 0.7137255, g: 0.28627452, b: 0, a: 1}
  - faceImg: {fileID: 0}
    faceText: NOW, LET TRY!
    okButtonText: YEAH
    isYesNo: 0
    isGoalTxt: 0
    isMoveTxt: 0
    isHint: 0
    buttonOperator: <<
    buttonOpeColor: {r: 1, g: 0.4039216, b: 0, a: 1}
    buttonOpeShadowColor: {r: 0.7137255, g: 0.28627452, b: 0, a: 1}
